…
## Results 3

This section will explore how scores for genres change over time.

    ## [1] 453

There are 435 unique genres in the dataset. This would be too much to
cover in a plot, so we will focus on the genres that occur most on the
list.

    ## # A tibble: 453 × 3
    ##    Genre_1            Average.Score count
    ##    <chr>                      <dbl> <int>
    ##  1 Progressive Rock            3.76   225
    ##  2 Singer/Songwriter           3.78   158
    ##  3 Hard Bop                    3.80   116
    ##  4 Film Score                  3.81   114
    ##  5 Hard Rock                   3.75   111
    ##  6 Heavy Metal                 3.77   108
    ##  7 East Coast Hip Hop          3.80   100
    ##  8 Video Game Music            3.85    96
    ##  9 Alternative Rock            3.75    93
    ## 10 Progressive Metal           3.72    80
    ## # … with 443 more rows
…
# First: Identify Question

# Question: What is the relationship between score and other variables, such as genre, descriptors, and artist?

### Find the Top 10 Most Common Genres, Descriptors, and Artists

    ## # A tibble: 453 × 2
    ##    Genre_1            count
    ##    <chr>              <int>
    ##  1 Progressive Rock     225
    ##  2 Singer/Songwriter    158
    ##  3 Hard Bop             116
    ##  4 Film Score           114
    ##  5 Hard Rock            111
    ##  6 Heavy Metal          108
    ##  7 East Coast Hip Hop   100
    ##  8 Video Game Music      96
    ##  9 Alternative Rock      93
    ## 10 Progressive Metal     80
    ## # … with 443 more rows

- Progressive Rock, Singer/Songwriter, Hard Bop, Film Score, Hard Rock,
  Heavy Metal, East Coast Hip Hop, Video Game Music, Alternative Rock,
  and Progressive Metal are the top 10 most common Genres.

<!-- -->

    ## # A tibble: 166 × 2
    ##    Desc_1          count
    ##    <chr>           <int>
    ##  1 "male vocals"     411
    ##  2 "instrumental"    271
    ##  3 "energetic"       234
    ##  4 "melodic"         174
    ##  5 "melancholic"     171
    ##  6 "female vocals"   147
    ##  7 "atmospheric"     122
    ##  8 "psychedelic"     115
    ##  9 ""                114
    ## 10 "passionate"      114
    ## # … with 156 more rows

- Male Vocals, Instrumental, Energetic, Melodic, Melancholic, Female
  Vocals, Atmostpheric, Psychedelic, Passionate, and Dark are the top 10
  most common Descriptors.

<!-- -->

    ## # A tibble: 2,787 × 2
    ##    Artist.Name     count
    ##    <chr>           <int>
    ##  1 Various Artists    25
    ##  2 Miles Davis        17
    ##  3 John Coltrane      14
    ##  4 Tom Waits          13
    ##  5 John Williams      12
    ##  6 Bob Dylan          11
    ##  7 The Beatles        10
    ##  8 Ennio Morricone     9
    ##  9 Herbie Hancock      9
    ## 10 Pharoah Sanders     9
    ## # … with 2,777 more rows
…
